…
        if(activity2[i, "dow"] == "Sunday" | activity2[i, "dow"] == "Saturday"){
                activity2[i, "days"] <- "Weekend"
        }
}

activity2$days <- as.factor(activity2$days)

stepsperdow <- group_by(activity2, interval, days)
act2reduced <- summarize(stepsperdow, Mean = mean(steps))
act2reduced
```

```
## # A tibble: 576 x 3
## # Groups:   interval [288]
##    interval days       Mean
##       <int> <fct>     <dbl>
##  1        0 Weekday 2.25   
##  2        0 Weekend 0.215  
##  3        5 Weekday 0.445  
##  4        5 Weekend 0.0425 
##  5       10 Weekday 0.173  
##  6       10 Weekend 0.0165 
##  7       15 Weekday 0.198  
##  8       15 Weekend 0.0189 
##  9       20 Weekday 0.0990 
## 10       20 Weekend 0.00943
## # ... with 566 more rows
```
…
